@startuml

package movieroom {

class Amplifier {
  +on()
  +off()
  +setCD()
  +setDvd()
  +setSurroundSound()
  +setStereoSound()
  +setVolume()
}
class DvdPlayer {
  +on()
  +off()
  +play()
  +pause()
  +eject()
  +stop()
}
class Lights {
  +on()
  +off()
  +dim()
}
class PopcornMachine {
  +on()
  +off()
  +pop()
}
class Projector {
  +on()
  +off()
  +tvMode()
  +wideScreenMode()
}
class Screen {
  +down()
  +up()
}
}

class HomeTheaterFacade {
  +watchMovie(movie : String)
  +endMovie()
}

Amplifier *-- HomeTheaterFacade
DvdPlayer *-- HomeTheaterFacade
Lights *-- HomeTheaterFacade
PopcornMachine *-- HomeTheaterFacade
Projector *-- HomeTheaterFacade
Screen *-- HomeTheaterFacade

class Client {
}

HomeTheaterFacade *- Client

@enduml