@startuml

abstract class Duck {
  -quackBehavior : QuackBehavior
  -flyBehavior : FlyBehavior
  +fly()
  +quack()
  +{abstract} describe()
}
interface FlyBehavior {
  {abstract} +fly()
}
interface QuackBehavior {
  {abstract} +quack()
}

class NormalFlying {
  +fly()
}

class NoFlying {
  +fly()
}

class FastFlying {
  +fly()
}

FlyBehavior <|-- NormalFlying
FlyBehavior <|-- NoFlying
FlyBehavior <|-- FastFlying

class NormalQuacking {
  +quack()
}

class NoQuacking {
  +quack()
}

class Talking {
  +quack()
}

QuackBehavior <|-- NormalQuacking
QuackBehavior <|-- NoQuacking
QuackBehavior <|-- Talking

FlyBehavior *- Duck
QuackBehavior *- Duck

class BathDuck {
  +describe()
}

class DonaldDuck {
  +describe()
}

class MallardDuck {
  +describe()
}

Duck <|--- BathDuck
Duck <|--- DonaldDuck
Duck <|--- MallardDuck

@enduml