@startuml

abstract class CaffeineBeverage {
  +makeBeverage()
  #{abstract} brew()
  #{abstract} addCondiments();
  #beverageReady()
  -boilWater()
  -pourInCup()
}

class Coffee {
  +brew()
  +addCondiments()
  +beverageReady()
}

CaffeineBeverage <|-- Coffee

class Tea {
  +brew()
  +addCondiments()
  +beverageReady()
}

CaffeineBeverage <|-- Tea

@enduml