@startuml

package smartproducts {
class Hottub {
  -temperature
  +on()
  +off()
  +setTemperature()
  +getTemperature()
}

class Light {
  -room
  +on()
  +off()
}

class Stereo {
  -volume
  +on()
  +off()
  +setVolume()
  +getVolume()
}

class TV {
  -volume
  -channel
  +on()
  +off()
  +setVolume()
  +getVolume()
  +setChannel()
  +getChannel()
}
}

interface Command {
  {abstract} +execute()
}

package commands {
class TurnOnTVCommand {
  -tv : TV
  +execute()
}
class TurnOffTVCommand {
  -tv : TV
  +execute()
}
class TurnOnStereoCommand {
  -stereo : Stereo
  +execute()
}
class TurnOffStereoCommand {
  -stereo : Stereo
  +execute()
}
class TurnOnLightCommand {
  -light : Light
  +execute()
}
class TurnOffLightCommand {
  -light : Light
  +execute()
}
}

class RemoteLoader {
}
commands *-- RemoteLoader

Command <|-- commands
smartproducts *--- commands

class RemoteControl {
  -commands
  +setCommand(pos)
  +buttonPressed(pos)
}

Command *- RemoteControl

smartproducts *-- RemoteLoader

@enduml