@startuml

class GumballMachine {
  -state
  -count
  +insertQuarter()
  +ejectQuarter()
  +turnCrank()
  +refill()
}
note left: Context

GumballMachine -* State

interface State {
  +insertQuarter()
  +ejectQuarter()
  +turnCrank()
  +dispense()
  +refill()
}

class NoQuarterState {
  -gumballMachine
  +insertQuarter()
}

class HasQuarterState {
  -gumballMachine
  +ejectQuarter()
  +turnCrank()
}

class SoldState {
  -gumballMachine
  +dispense()
}

class SoldOutState {
  -gumballMachine
  +refill()
}

State <-- NoQuarterState
State <-- HasQuarterState
State <-- SoldState
State <-- SoldOutState

@enduml