@startuml
interface java.util.Iterator<T> {
  +{abstract} hasNext()
  +{abstract} next()
}
interface java.lang.Iterable<T> {
  +{abstract}iterator()
}

java.util.Iterator *- java.lang.Iterable
java.lang.Iterable <|-- MenuComponent

interface MenuComponent {
  {abstract} +getName();
  {abstract} +getDescription();
  {abstract} +print();

  +getPrice()
  +isVegetarian()

  +add(MenuComponent)
  +remove(MenuComponent)
  +getNumChildren()
  +getChild(pos)
}
note left: Component

class MenuItem {
  +getName()
  +getDescription()
  +print()
  +getPrice()
  +isVegetarian()
  +iterator()
}
note right: Leaf

class Menu {
  -menuComponents
  +getName()
  +getDescription()
  +print()
  +add(MenuComponent)
  +remove(MenuComponent)
  +getNumChildren()
  +getChild(pos)
  +iterator()
}
note right: Composite

MenuComponent <|-- MenuItem
MenuComponent <|-- Menu
MenuComponent *-- Menu

class Waitress {
  +printAllMenus()
  +waitress.printVegetarianDishes()
  +waitress.printDessertMenu()
  +...()
}

MenuComponent *- Waitress

EmptyIterator *- MenuItem
MenuComponentIterator *- Menu

@enduml